{
  "compilerOptions": {
    "checkJs": true,
    "strict": true,
    "strictNullChecks": false,
    "target": "esnext",
    "module": "commonjs",
    "lib": [
      "esnext", "scripthost"
    ]
  },
  "include": [
    "cmds"
  ]
}